{
  "Comment.nvim": { "branch": "master", "commit": "6821b3ae27a57f1f3cf8ed030e4a55d70d0c4e43" },
  "Harpoon": { "branch": "master", "commit": "f7040fd0c44e7a4010369136547de5604b9c22a1" },
  "LuaSnip": { "branch": "master", "commit": "f7c845749aba6096f041a73a26ba64f3817bab99" },
  "alpha-nvim": { "branch": "main", "commit": "b6c7b5d9d6d2633722255abf2be3ecb8733e8d2d" },
  "bigfile.nvim": { "branch": "main", "commit": "c1bad34ce742b4f360b67ca23c873fef998240fc" },
  "bufferline.nvim": { "branch": "main", "commit": "cbb798dd2db7841550cd2c6c6dde12dfda055928" },
  "cmp-buffer": { "branch": "main", "commit": "3022dbc9166796b644a841a02de8dd1cc1d311fa" },
  "cmp-cmdline": { "branch": "main", "commit": "8fcc934a52af96120fe26358985c10c035984b53" },
  "cmp-nvim-lsp": { "branch": "main", "commit": "0e6b2ed705ddcff9738ec4ea838141654f12eeef" },
  "cmp-path": { "branch": "main", "commit": "91ff86cd9c29299a64f968ebb45846c485725f23" },
  "cmp-tabnine": { "branch": "main", "commit": "a6cb553143573861d2d98da86ceb3074c87fc536" },
  "cmp_luasnip": { "branch": "master", "commit": "18095520391186d634a0045dacaa346291096566" },
  "copilot-cmp": { "branch": "master", "commit": "92535dfd9c430b49ca7d9a7da336c5db65826b65" },
  "copilot.lua": { "branch": "master", "commit": "b41d4c9c7d4f5e0272bcf94061b88e244904c56f" },
  "dial.nvim": { "branch": "master", "commit": "5020da900cc5dfd7067f181ee2ebd872ca7c84e8" },
  "flutter-tools.nvim": { "branch": "main", "commit": "31f75ae70780cb593bbd3b5179203a9e2b05cefa" },
  "friendly-snippets": { "branch": "main", "commit": "02ed98a1d4bc8baac405480935f3353d3bd60359" },
  "github.nvim": { "branch": "master", "commit": "68103cb4faf3d6b08e61adb5c295307f387ab542" },
  "gitsigns.nvim": { "branch": "main", "commit": "76b71f74ce002119fce322df13bd21cc52c1d112" },
  "go.nvim": { "branch": "master", "commit": "1844fd11a143aba3eec644c2e2099a20f79c1ec1" },
  "gruvbox.nvim": { "branch": "main", "commit": "3e31f9ab01fed42ebac75738c681daacb8c82bff" },
  "guihua.lua": { "branch": "master", "commit": "a19ac4447021f21383fadd7a9e1fc150d0b67e1f" },
  "indent-blankline.nvim": { "branch": "master", "commit": "018bd04d80c9a73d399c1061fa0c3b14a7614399" },
  "lazy.nvim": { "branch": "main", "commit": "26d121ea13bee96b079403cee6598f04969d4983" },
  "lightspeed.nvim": { "branch": "main", "commit": "299eefa6a9e2d881f1194587c573dad619fdb96f" },
  "lir.nvim": { "branch": "master", "commit": "1aa871f20637eccc4e1e26b0fbcf9aafc9b6caf7" },
  "lualine.nvim": { "branch": "master", "commit": "e99d733e0213ceb8f548ae6551b04ae32e590c80" },
  "lunar.nvim": { "branch": "master", "commit": "29eedf78c430ad9acebdcba814d77619edbe2bac" },
  "mason-lspconfig.nvim": { "branch": "main", "commit": "3f9c0ea157e88b08e2d11ec65002eeb6e421f0da" },
  "mason.nvim": { "branch": "main", "commit": "1c23135467af667c61aef72a7c08b9a032c50a52" },
  "mini.nvim": { "branch": "main", "commit": "c65901227e5a3671dbcb054745566a1c78f9f0c8" },
  "neodev.nvim": { "branch": "main", "commit": "ce25624124cd9e1ab1fb4f2c83f6f4005400c3ad" },
  "nlsp-settings.nvim": { "branch": "main", "commit": "dca0c570667a433430164779fb313da93c7b2324" },
  "noice.nvim": { "branch": "main", "commit": "c22651651da01239fc4afac4cdb7261797d5f02e" },
  "nui.nvim": { "branch": "main", "commit": "0dc148c6ec06577fcf06cbab3b7dac96d48ba6be" },
  "null-ls.nvim": { "branch": "main", "commit": "689cdd78f70af20a37b5309ebc287ac645ae4f76" },
  "nvim-autopairs": { "branch": "master", "commit": "6a5faeabdbcc86cfbf1561ae430a451a72126e81" },
  "nvim-cmp": { "branch": "main", "commit": "01f697a68905f9dcae70960a9eb013695a17f9a2" },
  "nvim-dap": { "branch": "master", "commit": "5b986edc95cf7b37da1db91a5c149daa3ac008d2" },
  "nvim-dap-ui": { "branch": "master", "commit": "bdb94e3853d11b5ce98ec182e5a3719d5c0ef6fd" },
  "nvim-dap-virtual-text": { "branch": "master", "commit": "8db23ea51203b5f00ad107a0cef7e0b2d7a0476c" },
  "nvim-jdtls": { "branch": "master", "commit": "db08bfb87300fca2db91d15b64ca88a62970fb58" },
  "nvim-lspconfig": { "branch": "master", "commit": "95b7a69bc6da2a6a740584ea3c555e5327638b7d" },
  "nvim-navic": { "branch": "master", "commit": "7e9d2b2b601149fecdccd11b516acb721e571fe6" },
  "nvim-notify": { "branch": "master", "commit": "281e4d793c550c866bea3fb85d39de1f0188fb50" },
  "nvim-spectre": { "branch": "master", "commit": "b71b64afe9fedbfdd25a8abec897ff4af3bd553a" },
  "nvim-tree.lua": { "branch": "master", "commit": "362ecbeed69fae91a287004619decadcb6f7c113" },
  "nvim-treesitter": { "branch": "master", "commit": "9dd1b9c09707bf1cdd565b999c79ac6461602591" },
  "nvim-treesitter-textsubjects": { "branch": "master", "commit": "b913508f503527ff540f7fe2dcf1bf1d1f259887" },
  "nvim-ts-context-commentstring": { "branch": "main", "commit": "a0f89563ba36b3bacd62cf967b46beb4c2c29e52" },
  "nvim-ts-rainbow2": { "branch": "master", "commit": "6bcb1472c321a15eef5a7a015b4fefa8758e6513" },
  "nvim-various-textobjs": { "branch": "main", "commit": "623ef1f191754452605a921258cc1b9c84a805d3" },
  "nvim-web-devicons": { "branch": "master", "commit": "c2c2317f356c8b7da0252f5da758f71bb60bb6b2" },
  "onedarker.nvim": { "branch": "freeze", "commit": "b00dd2189f264c5aeb4cf04c59439655ecd573ec" },
  "playground": { "branch": "master", "commit": "4044b53c4d4fcd7a78eae20b8627f78ce7dc6f56" },
  "plenary.nvim": { "branch": "master", "commit": "253d34830709d690f013daf2853a9d21ad7accab" },
  "popup.nvim": { "branch": "master", "commit": "b7404d35d5d3548a82149238289fa71f7f6de4ac" },
  "project.nvim": { "branch": "main", "commit": "1c2e9c93c7c85126c2197f5e770054f53b1926fb" },
  "schemastore.nvim": { "branch": "main", "commit": "6f2ffb8420422db9a6c43dbce7227f0fdb9fcf75" },
  "structlog.nvim": { "branch": "main", "commit": "45b26a2b1036bb93c0e83f4225e85ab3cee8f476" },
  "synthwave84.nvim": { "branch": "master", "commit": "eac1f349713e2f470d8ee857913a42135bcc1a7f" },
  "tailwindcss-colorizer-cmp.nvim": { "branch": "main", "commit": "f044050da3ec6e1cdb31985beecec6810cc27f0b" },
  "telescope-dap.nvim": { "branch": "master", "commit": "313d2ea12ae59a1ca51b62bf01fc941a983d9c9c" },
  "telescope-fzf-native.nvim": { "branch": "main", "commit": "580b6c48651cabb63455e97d7e131ed557b8c7e2" },
  "telescope-tabs": { "branch": "master", "commit": "df6e9eb2d7338a7ebe45f306582d5456dab8695c" },
  "telescope.nvim": { "branch": "0.1.x", "commit": "766a45a972408f67e793a3b63e3c419ff5458753" },
  "toggleterm.nvim": { "branch": "main", "commit": "31d38d11390bcd35a568fcc65a79b7d6ec89de62" },
  "tokyonight.nvim": { "branch": "main", "commit": "735e94f3b36ae8b0caa30d1806eb2fa1c3619ca6" },
  "vim-illuminate": { "branch": "master", "commit": "49062ab1dd8fec91833a69f0a1344223dd59d643" },
  "which-key.nvim": { "branch": "main", "commit": "6e190f4732a0f2fc517036f2fcf7727893bc5329" }
}